# Blender MTL File: 'livingroom3.blend'
# Material Count: 87

newmtl TV
Ns 90.196078
Ka 0.000000 0.000000 0.000000
Kd 0.409600 0.409600 0.409600
Ks 0.500000 0.500000 0.500000
Ni 1.000000
d 1.000000
illum 2
map_Kd /home/ankur/texture_library/tv/The-Land-of-the-Mystic-35-Full-HD-New-Zealand-Wallpapers-For-Free-Download-37.jpg

newmtl Teapot
Ns 90.196078
Ka 0.000000 0.000000 0.000000
Kd 0.409600 0.409600 0.409600
Ks 0.500000 0.500000 0.500000
Ni 1.000000
d 1.000000
illum 2
map_Kd /home/ankur/texture_library/duvet/5634339c2263c3d69c2b4838bd5d80cc.jpg

newmtl blinds
Ns 90.196078
Ka 0.000000 0.000000 0.000000
Kd 0.409600 0.409600 0.409600
Ks 0.500000 0.500000 0.500000
Ni 1.000000
d 1.000000
illum 2
map_Kd /home/ankur/texture_library/curtain/curtainp2.jpg

newmtl candle_sticks
Ns 90.196078
Ka 0.000000 0.000000 0.000000
Kd 0.409600 0.409600 0.409600
Ks 0.500000 0.500000 0.500000
Ni 1.000000
d 1.000000
illum 2
map_Kd /home/ankur/texture_library/duvet/5634339c2263c3d69c2b4838bd5d80cc.jpg

newmtl candle_sticks.001
Ns 90.196078
Ka 0.000000 0.000000 0.000000
Kd 0.409600 0.409600 0.409600
Ks 0.500000 0.500000 0.500000
Ni 1.000000
d 1.000000
illum 2
map_Kd /home/ankur/texture_library/duvet/5634339c2263c3d69c2b4838bd5d80cc.jpg

newmtl carpet
Ns 90.196078
Ka 0.000000 0.000000 0.000000
Kd 0.409600 0.409600 0.409600
Ks 0.500000 0.500000 0.500000
Ni 1.000000
d 1.000000
illum 2
map_Kd /home/ankur/texture_library/floor/images.jpg

newmtl carpet.001
Ns 90.196078
Ka 0.000000 0.000000 0.000000
Kd 0.409600 0.409600 0.409600
Ks 0.500000 0.500000 0.500000
Ni 1.000000
d 1.000000
illum 2
map_Kd /home/ankur/texture_library/floor/5718e21357fc32c7d5648faaef40aaa9.jpg

newmtl ceiling
Ns 90.196078
Ka 0.000000 0.000000 0.000000
Kd 0.409600 0.409600 0.409600
Ks 0.500000 0.500000 0.500000
Ni 1.000000
d 1.000000
illum 2
map_Kd /home/ankur/texture_library/ceiling/CEILING-TILE-VOL2_08.jpg

newmtl ceiling.001
Ns 90.196078
Ka 0.000000 0.000000 0.000000
Kd 0.409600 0.409600 0.409600
Ks 0.500000 0.500000 0.500000
Ni 1.000000
d 1.000000
illum 2
map_Kd /home/ankur/texture_library/ceiling/CEILING-TILE-VOL2_08.jpg

newmtl ceiling.002
Ns 90.196078
Ka 0.000000 0.000000 0.000000
Kd 0.409600 0.409600 0.409600
Ks 0.500000 0.500000 0.500000
Ni 1.000000
d 1.000000
illum 2
map_Kd /home/ankur/texture_library/ceiling/ceiling_tiled.jpg

newmtl chair
Ns 90.196078
Ka 0.000000 0.000000 0.000000
Kd 0.409600 0.409600 0.409600
Ks 0.500000 0.500000 0.500000
Ni 1.000000
d 1.000000
illum 2
map_Kd /home/ankur/texture_library/chair/4fff0428c30f9e9556f613b36867cde9.jpg

newmtl chair.001
Ns 90.196078
Ka 0.000000 0.000000 0.000000
Kd 0.409600 0.409600 0.409600
Ks 0.500000 0.500000 0.500000
Ni 1.000000
d 1.000000
illum 2
map_Kd /home/ankur/texture_library/chair/images3.jpg

newmtl chair.002
Ns 90.196078
Ka 0.000000 0.000000 0.000000
Kd 0.409600 0.409600 0.409600
Ks 0.500000 0.500000 0.500000
Ni 1.000000
d 1.000000
illum 2
map_Kd /home/ankur/texture_library/chair/images7.jpg

newmtl chair.003
Ns 90.196078
Ka 0.000000 0.000000 0.000000
Kd 0.409600 0.409600 0.409600
Ks 0.500000 0.500000 0.500000
Ni 1.000000
d 1.000000
illum 2
map_Kd /home/ankur/texture_library/chair/chair_fabric-texture.jpg

newmtl chair.004
Ns 90.196078
Ka 0.000000 0.000000 0.000000
Kd 0.409600 0.409600 0.409600
Ks 0.500000 0.500000 0.500000
Ni 1.000000
d 1.000000
illum 2
map_Kd /home/ankur/texture_library/chair/woodtexture2.jpg

newmtl chair.005
Ns 90.196078
Ka 0.000000 0.000000 0.000000
Kd 0.409600 0.409600 0.409600
Ks 0.500000 0.500000 0.500000
Ni 1.000000
d 1.000000
illum 2
map_Kd /home/ankur/texture_library/chair/woodtexture2.jpg

newmtl chair.006
Ns 90.196078
Ka 0.000000 0.000000 0.000000
Kd 0.409600 0.409600 0.409600
Ks 0.500000 0.500000 0.500000
Ni 1.000000
d 1.000000
illum 2
map_Kd /home/ankur/texture_library/chair/images4.jpg

newmtl chair.007
Ns 90.196078
Ka 0.000000 0.000000 0.000000
Kd 0.409600 0.409600 0.409600
Ks 0.500000 0.500000 0.500000
Ni 1.000000
d 1.000000
illum 2
map_Kd /home/ankur/texture_library/chair/images7.jpg

newmtl chair.008
Ns 90.196078
Ka 0.000000 0.000000 0.000000
Kd 0.409600 0.409600 0.409600
Ks 0.500000 0.500000 0.500000
Ni 1.000000
d 1.000000
illum 2
map_Kd /home/ankur/texture_library/chair/images3.jpg

newmtl chopsticks
Ns 90.196078
Ka 0.000000 0.000000 0.000000
Kd 0.409600 0.409600 0.409600
Ks 0.500000 0.500000 0.500000
Ni 1.000000
d 1.000000
illum 2
map_Kd /home/ankur/texture_library/duvet/5634339c2263c3d69c2b4838bd5d80cc.jpg

newmtl cloth
Ns 90.196078
Ka 0.000000 0.000000 0.000000
Kd 0.409600 0.409600 0.409600
Ks 0.500000 0.500000 0.500000
Ni 1.000000
d 1.000000
illum 2
map_Kd /home/ankur/texture_library/duvet/5634339c2263c3d69c2b4838bd5d80cc.jpg

newmtl curtains
Ns 90.196078
Ka 0.000000 0.000000 0.000000
Kd 0.409600 0.409600 0.409600
Ks 0.500000 0.500000 0.500000
Ni 1.000000
d 1.000000
illum 2
map_Kd /home/ankur/texture_library/curtain/curtainp2.jpg

newmtl curtains.001
Ns 90.196078
Ka 0.000000 0.000000 0.000000
Kd 0.409600 0.409600 0.409600
Ks 0.500000 0.500000 0.500000
Ni 1.000000
d 1.000000
illum 2
map_Kd /home/ankur/texture_library/curtain/curtainp2.jpg

newmtl deco
Ns 90.196078
Ka 0.000000 0.000000 0.000000
Kd 0.409600 0.409600 0.409600
Ks 0.500000 0.500000 0.500000
Ni 1.000000
d 1.000000
illum 2
map_Kd /home/ankur/texture_library/duvet/5634339c2263c3d69c2b4838bd5d80cc.jpg

newmtl deco.001
Ns 90.196078
Ka 0.000000 0.000000 0.000000
Kd 0.409600 0.409600 0.409600
Ks 0.500000 0.500000 0.500000
Ni 1.000000
d 1.000000
illum 2
map_Kd /home/ankur/texture_library/duvet/5634339c2263c3d69c2b4838bd5d80cc.jpg

newmtl deco.002
Ns 90.196078
Ka 0.000000 0.000000 0.000000
Kd 0.409600 0.409600 0.409600
Ks 0.500000 0.500000 0.500000
Ni 1.000000
d 1.000000
illum 2
map_Kd /home/ankur/texture_library/duvet/5634339c2263c3d69c2b4838bd5d80cc.jpg

newmtl door
Ns 90.196078
Ka 0.000000 0.000000 0.000000
Kd 0.409600 0.409600 0.409600
Ks 0.500000 0.500000 0.500000
Ni 1.000000
d 1.000000
illum 2
map_Kd /home/ankur/texture_library/door/6672bedd7f0ab76a2e5871feb3895412.jpg

newmtl door.001
Ns 90.196078
Ka 0.000000 0.000000 0.000000
Kd 0.409600 0.409600 0.409600
Ks 0.500000 0.500000 0.500000
Ni 1.000000
d 1.000000
illum 2
map_Kd /home/ankur/texture_library/door/door-texture.jpg

newmtl door.002
Ns 90.196078
Ka 0.000000 0.000000 0.000000
Kd 0.409600 0.409600 0.409600
Ks 0.500000 0.500000 0.500000
Ni 1.000000
d 1.000000
illum 2
map_Kd /home/ankur/texture_library/door/709f4a9f348a19e367cd71070c382f63.jpg

newmtl doors
Ns 90.196078
Ka 0.000000 0.000000 0.000000
Kd 0.409600 0.409600 0.409600
Ks 0.500000 0.500000 0.500000
Ni 1.000000
d 1.000000
illum 2
map_Kd /home/ankur/texture_library/door/6672bedd7f0ab76a2e5871feb3895412.jpg

newmtl doors.001
Ns 90.196078
Ka 0.000000 0.000000 0.000000
Kd 0.409600 0.409600 0.409600
Ks 0.500000 0.500000 0.500000
Ni 1.000000
d 1.000000
illum 2
map_Kd /home/ankur/texture_library/door/6672bedd7f0ab76a2e5871feb3895412.jpg

newmtl drawer
Ns 90.196078
Ka 0.000000 0.000000 0.000000
Kd 0.409600 0.409600 0.409600
Ks 0.500000 0.500000 0.500000
Ni 1.000000
d 1.000000
illum 2
map_Kd /home/ankur/texture_library/furniture/5a37400d95f0065041855d70de05f965.jpg

newmtl drawer.002
Ns 90.196078
Ka 0.000000 0.000000 0.000000
Kd 0.409600 0.409600 0.409600
Ks 0.500000 0.500000 0.500000
Ni 1.000000
d 1.000000
illum 2
map_Kd /home/ankur/texture_library/furniture/e6cd46917b4bf133ac8d364eb6570555.jpg

newmtl drawers
Ns 90.196078
Ka 0.000000 0.000000 0.000000
Kd 0.409600 0.409600 0.409600
Ks 0.500000 0.500000 0.500000
Ni 1.000000
d 1.000000
illum 2
map_Kd /home/ankur/texture_library/furniture/f8e9bde683166b2d6f59edece41c8800.jpg

newmtl floor
Ns 90.196078
Ka 0.000000 0.000000 0.000000
Kd 0.409600 0.409600 0.409600
Ks 0.500000 0.500000 0.500000
Ni 1.000000
d 1.000000
illum 2
map_Kd /home/ankur/texture_library/floor/images.jpg

newmtl flower_pot
Ns 90.196078
Ka 0.000000 0.000000 0.000000
Kd 0.409600 0.409600 0.409600
Ks 0.500000 0.500000 0.500000
Ni 1.000000
d 1.000000
illum 2
map_Kd /home/ankur/texture_library/duvet/5634339c2263c3d69c2b4838bd5d80cc.jpg

newmtl flower_pots
Ns 90.196078
Ka 0.000000 0.000000 0.000000
Kd 0.409600 0.409600 0.409600
Ks 0.500000 0.500000 0.500000
Ni 1.000000
d 1.000000
illum 2
map_Kd /home/ankur/texture_library/duvet/5634339c2263c3d69c2b4838bd5d80cc.jpg

newmtl furniture
Ns 90.196078
Ka 0.000000 0.000000 0.000000
Kd 0.409600 0.409600 0.409600
Ks 0.500000 0.500000 0.500000
Ni 1.000000
d 1.000000
illum 2
map_Kd /home/ankur/texture_library/furniture/c4751258c4e6395129606f13de3f0bed.jpg

newmtl lights
Ns 90.196078
Ka 0.000000 0.000000 0.000000
Kd 0.409600 0.409600 0.409600
Ks 0.500000 0.500000 0.500000
Ni 1.000000
d 1.000000
illum 2
map_Kd /home/ankur/texture_library/duvet/5634339c2263c3d69c2b4838bd5d80cc.jpg

newmtl note_book
Ns 90.196078
Ka 0.000000 0.000000 0.000000
Kd 0.409600 0.409600 0.409600
Ks 0.500000 0.500000 0.500000
Ni 1.000000
d 1.000000
illum 2
map_Kd /home/ankur/texture_library/book/utikonyvek.jpg

newmtl painting
Ns 90.196078
Ka 0.000000 0.000000 0.000000
Kd 0.409600 0.409600 0.409600
Ks 0.500000 0.500000 0.500000
Ni 1.000000
d 1.000000
illum 2
map_Kd /home/ankur/texture_library/painting/59fb2d214a67c569e3c11c0fb69f670a.jpg

newmtl painting.001
Ns 90.196078
Ka 0.000000 0.000000 0.000000
Kd 0.409600 0.409600 0.409600
Ks 0.500000 0.500000 0.500000
Ni 1.000000
d 1.000000
illum 2
map_Kd /home/ankur/texture_library/painting/71e1e645969f8af0800745a2200bfafb.jpg

newmtl painting.002
Ns 90.196078
Ka 0.000000 0.000000 0.000000
Kd 0.409600 0.409600 0.409600
Ks 0.500000 0.500000 0.500000
Ni 1.000000
d 1.000000
illum 2
map_Kd /home/ankur/texture_library/painting/873a6120c92ba8d436014a54ef1fe8fe.jpg

newmtl pen
Ns 90.196078
Ka 0.000000 0.000000 0.000000
Kd 0.409600 0.409600 0.409600
Ks 0.500000 0.500000 0.500000
Ni 1.000000
d 1.000000
illum 2
map_Kd /home/ankur/texture_library/duvet/5634339c2263c3d69c2b4838bd5d80cc.jpg

newmtl pendant
Ns 90.196078
Ka 0.000000 0.000000 0.000000
Kd 0.409600 0.409600 0.409600
Ks 0.500000 0.500000 0.500000
Ni 1.000000
d 1.000000
illum 2
map_Kd /home/ankur/texture_library/duvet/5634339c2263c3d69c2b4838bd5d80cc.jpg

newmtl pendant.001
Ns 90.196078
Ka 0.000000 0.000000 0.000000
Kd 0.409600 0.409600 0.409600
Ks 0.500000 0.500000 0.500000
Ni 1.000000
d 1.000000
illum 2
map_Kd /home/ankur/texture_library/duvet/5634339c2263c3d69c2b4838bd5d80cc.jpg

newmtl piano
Ns 90.196078
Ka 0.000000 0.000000 0.000000
Kd 0.409600 0.409600 0.409600
Ks 0.500000 0.500000 0.500000
Ni 1.000000
d 1.000000
illum 2
map_Kd /home/ankur/texture_library/duvet/5634339c2263c3d69c2b4838bd5d80cc.jpg

newmtl piano.001
Ns 90.196078
Ka 0.000000 0.000000 0.000000
Kd 0.409600 0.409600 0.409600
Ks 0.500000 0.500000 0.500000
Ni 1.000000
d 1.000000
illum 2
map_Kd /home/ankur/texture_library/duvet/5634339c2263c3d69c2b4838bd5d80cc.jpg

newmtl piano.002
Ns 90.196078
Ka 0.000000 0.000000 0.000000
Kd 0.409600 0.409600 0.409600
Ks 0.500000 0.500000 0.500000
Ni 1.000000
d 1.000000
illum 2
map_Kd /home/ankur/texture_library/duvet/5634339c2263c3d69c2b4838bd5d80cc.jpg

newmtl piano.003
Ns 90.196078
Ka 0.000000 0.000000 0.000000
Kd 0.409600 0.409600 0.409600
Ks 0.500000 0.500000 0.500000
Ni 1.000000
d 1.000000
illum 2
map_Kd /home/ankur/texture_library/duvet/5634339c2263c3d69c2b4838bd5d80cc.jpg

newmtl pillows.000
Ns 90.196078
Ka 0.000000 0.000000 0.000000
Kd 0.409600 0.409600 0.409600
Ks 0.500000 0.500000 0.500000
Ni 1.000000
d 1.000000
illum 2
map_Kd /home/ankur/texture_library/pillow/f2de320921dce1b971b9fb64fe5b32cf.jpg

newmtl plate_pads.001
Ns 90.196078
Ka 0.000000 0.000000 0.000000
Kd 0.409600 0.409600 0.409600
Ks 0.500000 0.500000 0.500000
Ni 1.000000
d 1.000000
illum 2
map_Kd /home/ankur/texture_library/duvet/5634339c2263c3d69c2b4838bd5d80cc.jpg

newmtl plates
Ns 90.196078
Ka 0.000000 0.000000 0.000000
Kd 0.409600 0.409600 0.409600
Ks 0.500000 0.500000 0.500000
Ni 1.000000
d 1.000000
illum 2
map_Kd /home/ankur/texture_library/duvet/5634339c2263c3d69c2b4838bd5d80cc.jpg

newmtl pots
Ns 90.196078
Ka 0.000000 0.000000 0.000000
Kd 0.409600 0.409600 0.409600
Ks 0.500000 0.500000 0.500000
Ni 1.000000
d 1.000000
illum 2
map_Kd /home/ankur/texture_library/duvet/5634339c2263c3d69c2b4838bd5d80cc.jpg

newmtl shelf
Ns 90.196078
Ka 0.000000 0.000000 0.000000
Kd 0.409600 0.409600 0.409600
Ks 0.500000 0.500000 0.500000
Ni 1.000000
d 1.000000
illum 2
map_Kd /home/ankur/texture_library/shelf/465_13_wood-textures-desktop-background.jpg

newmtl shelf_light
Ns 90.196078
Ka 0.000000 0.000000 0.000000
Kd 0.409600 0.409600 0.409600
Ks 0.500000 0.500000 0.500000
Ni 1.000000
d 1.000000
illum 2
map_Kd /home/ankur/texture_library/shelf/465_13_wood-textures-desktop-background.jpg

newmtl sofa
Ns 90.196078
Ka 0.000000 0.000000 0.000000
Kd 0.409600 0.409600 0.409600
Ks 0.500000 0.500000 0.500000
Ni 1.000000
d 1.000000
illum 2
map_Kd /home/ankur/texture_library/sofa/1_214822_1.jpg

newmtl sofa_sheet
Ns 90.196078
Ka 0.000000 0.000000 0.000000
Kd 0.409600 0.409600 0.409600
Ks 0.500000 0.500000 0.500000
Ni 1.000000
d 1.000000
illum 2
map_Kd /home/ankur/texture_library/sofa/25.jpg

newmtl speakers
Ns 90.196078
Ka 0.000000 0.000000 0.000000
Kd 0.409600 0.409600 0.409600
Ks 0.500000 0.500000 0.500000
Ni 1.000000
d 1.000000
illum 2
map_Kd /home/ankur/texture_library/duvet/5634339c2263c3d69c2b4838bd5d80cc.jpg

newmtl stereo
Ns 90.196078
Ka 0.000000 0.000000 0.000000
Kd 0.409600 0.409600 0.409600
Ks 0.500000 0.500000 0.500000
Ni 1.000000
d 1.000000
illum 2
map_Kd /home/ankur/texture_library/duvet/5634339c2263c3d69c2b4838bd5d80cc.jpg

newmtl stereo.001
Ns 90.196078
Ka 0.000000 0.000000 0.000000
Kd 0.409600 0.409600 0.409600
Ks 0.500000 0.500000 0.500000
Ni 1.000000
d 1.000000
illum 2
map_Kd /home/ankur/texture_library/duvet/5634339c2263c3d69c2b4838bd5d80cc.jpg

newmtl stool
Ns 90.196078
Ka 0.000000 0.000000 0.000000
Kd 0.409600 0.409600 0.409600
Ks 0.500000 0.500000 0.500000
Ni 1.000000
d 1.000000
illum 2
map_Kd /home/ankur/texture_library/duvet/5634339c2263c3d69c2b4838bd5d80cc.jpg

newmtl table
Ns 90.196078
Ka 0.000000 0.000000 0.000000
Kd 0.409600 0.409600 0.409600
Ks 0.500000 0.500000 0.500000
Ni 1.000000
d 1.000000
illum 2
map_Kd /home/ankur/texture_library/table/1wall_wood_big_10_01_20.jpg

newmtl table.001
Ns 90.196078
Ka 0.000000 0.000000 0.000000
Kd 0.409600 0.409600 0.409600
Ks 0.500000 0.500000 0.500000
Ni 1.000000
d 1.000000
illum 2
map_Kd /home/ankur/texture_library/table/1wall_wood_big_10_01_20.jpg

newmtl table.002
Ns 90.196078
Ka 0.000000 0.000000 0.000000
Kd 0.409600 0.409600 0.409600
Ks 0.500000 0.500000 0.500000
Ni 1.000000
d 1.000000
illum 2
map_Kd /home/ankur/texture_library/table/woodtexture.jpg

newmtl table_cloth
Ns 90.196078
Ka 0.000000 0.000000 0.000000
Kd 0.409600 0.409600 0.409600
Ks 0.500000 0.500000 0.500000
Ni 1.000000
d 1.000000
illum 2
map_Kd /home/ankur/texture_library/table/woodtexture.jpg

newmtl tea_cups
Ns 90.196078
Ka 0.000000 0.000000 0.000000
Kd 0.409600 0.409600 0.409600
Ks 0.500000 0.500000 0.500000
Ni 1.000000
d 1.000000
illum 2
map_Kd /home/ankur/texture_library/duvet/5634339c2263c3d69c2b4838bd5d80cc.jpg

newmtl tiled_wall
Ns 90.196078
Ka 0.000000 0.000000 0.000000
Kd 0.409600 0.409600 0.409600
Ks 0.500000 0.500000 0.500000
Ni 1.000000
d 1.000000
illum 2
map_Kd /home/ankur/texture_library/wall/292a7055c4eebc2687f0a1637f5af9ac.jpg

newmtl wall
Ns 90.196078
Ka 0.000000 0.000000 0.000000
Kd 0.409600 0.409600 0.409600
Ks 0.500000 0.500000 0.500000
Ni 1.000000
d 1.000000
illum 2
map_Kd /home/ankur/texture_library/wall/images.jpg

newmtl wall.001
Ns 90.196078
Ka 0.000000 0.000000 0.000000
Kd 0.409600 0.409600 0.409600
Ks 0.500000 0.500000 0.500000
Ni 1.000000
d 1.000000
illum 2
map_Kd /home/ankur/texture_library/wall/images.jpg

newmtl wall.002
Ns 90.196078
Ka 0.000000 0.000000 0.000000
Kd 0.409600 0.409600 0.409600
Ks 0.500000 0.500000 0.500000
Ni 1.000000
d 1.000000
illum 2
map_Kd /home/ankur/texture_library/wall/images.jpg

newmtl walls
Ns 90.196078
Ka 0.000000 0.000000 0.000000
Kd 0.409600 0.409600 0.409600
Ks 0.500000 0.500000 0.500000
Ni 1.000000
d 1.000000
illum 2
map_Kd /home/ankur/texture_library/wall/furniture-black-painted-wall-texture-with-download-painted-cracked-wall-texture.jpg

newmtl walls.001
Ns 90.196078
Ka 0.000000 0.000000 0.000000
Kd 0.409600 0.409600 0.409600
Ks 0.500000 0.500000 0.500000
Ni 1.000000
d 1.000000
illum 2
map_Kd /home/ankur/texture_library/wall/7f9e2f6a97c208ae05ca981c973338cb_64x64.jpg

newmtl window
Ns 90.196078
Ka 0.000000 0.000000 0.000000
Kd 0.409600 0.409600 0.409600
Ks 0.500000 0.500000 0.500000
Ni 1.000000
d 1.000000
illum 2
map_Kd /home/ankur/texture_library/window/1970s-Commercial-Window.jpg

newmtl windows
Ns 90.196078
Ka 0.000000 0.000000 0.000000
Kd 0.409600 0.409600 0.409600
Ks 0.500000 0.500000 0.500000
Ni 1.000000
d 1.000000
illum 2
map_Kd /home/ankur/texture_library/window/plain-paper.jpg

newmtl windows.001
Ns 90.196078
Ka 0.000000 0.000000 0.000000
Kd 0.409600 0.409600 0.409600
Ks 0.500000 0.500000 0.500000
Ni 1.000000
d 1.000000
illum 2
map_Kd /home/ankur/texture_library/window/long_horizontal_window.jpg

newmtl windows.002
Ns 90.196078
Ka 0.000000 0.000000 0.000000
Kd 0.409600 0.409600 0.409600
Ks 0.500000 0.500000 0.500000
Ni 1.000000
d 1.000000
illum 2
map_Kd /home/ankur/texture_library/window/EW_041.jpg

newmtl wine_bottle
Ns 90.196078
Ka 0.000000 0.000000 0.000000
Kd 0.409600 0.409600 0.409600
Ks 0.500000 0.500000 0.500000
Ni 1.000000
d 1.000000
illum 2
map_Kd /home/ankur/texture_library/duvet/5634339c2263c3d69c2b4838bd5d80cc.jpg

newmtl wine_bottle.001
Ns 90.196078
Ka 0.000000 0.000000 0.000000
Kd 0.409600 0.409600 0.409600
Ks 0.500000 0.500000 0.500000
Ni 1.000000
d 1.000000
illum 2
map_Kd /home/ankur/texture_library/duvet/5634339c2263c3d69c2b4838bd5d80cc.jpg

newmtl wine_bottle_rack
Ns 90.196078
Ka 0.000000 0.000000 0.000000
Kd 0.409600 0.409600 0.409600
Ks 0.500000 0.500000 0.500000
Ni 1.000000
d 1.000000
illum 2
map_Kd /home/ankur/texture_library/duvet/5634339c2263c3d69c2b4838bd5d80cc.jpg

newmtl wine_bottles
Ns 90.196078
Ka 0.000000 0.000000 0.000000
Kd 0.409600 0.409600 0.409600
Ks 0.500000 0.500000 0.500000
Ni 1.000000
d 1.000000
illum 2
map_Kd /home/ankur/texture_library/duvet/5634339c2263c3d69c2b4838bd5d80cc.jpg

newmtl wine_bottles.001
Ns 90.196078
Ka 0.000000 0.000000 0.000000
Kd 0.409600 0.409600 0.409600
Ks 0.500000 0.500000 0.500000
Ni 1.000000
d 1.000000
illum 2
map_Kd /home/ankur/texture_library/duvet/5634339c2263c3d69c2b4838bd5d80cc.jpg

newmtl wine_glass
Ns 90.196078
Ka 0.000000 0.000000 0.000000
Kd 0.409600 0.409600 0.409600
Ks 0.500000 0.500000 0.500000
Ni 1.000000
d 1.000000
illum 2
map_Kd /home/ankur/texture_library/duvet/5634339c2263c3d69c2b4838bd5d80cc.jpg

newmtl wine_glasses
Ns 90.196078
Ka 0.000000 0.000000 0.000000
Kd 0.409600 0.409600 0.409600
Ks 0.500000 0.500000 0.500000
Ni 1.000000
d 1.000000
illum 2
map_Kd /home/ankur/texture_library/duvet/5634339c2263c3d69c2b4838bd5d80cc.jpg

newmtl wine_glasses.001
Ns 90.196078
Ka 0.000000 0.000000 0.000000
Kd 0.409600 0.409600 0.409600
Ks 0.500000 0.500000 0.500000
Ni 1.000000
d 1.000000
illum 2
map_Kd /home/ankur/texture_library/duvet/5634339c2263c3d69c2b4838bd5d80cc.jpg

newmtl wine_glasses.002
Ns 90.196078
Ka 0.000000 0.000000 0.000000
Kd 0.409600 0.409600 0.409600
Ks 0.500000 0.500000 0.500000
Ni 1.000000
d 1.000000
illum 2
map_Kd /home/ankur/texture_library/duvet/5634339c2263c3d69c2b4838bd5d80cc.jpg

newmtl wine_glasses.003
Ns 90.196078
Ka 0.000000 0.000000 0.000000
Kd 0.409600 0.409600 0.409600
Ks 0.500000 0.500000 0.500000
Ni 1.000000
d 1.000000
illum 2
map_Kd /home/ankur/texture_library/duvet/5634339c2263c3d69c2b4838bd5d80cc.jpg
