# Blender MTL File: 'livingroom7.blend'
# Material Count: 56

newmtl Archinter8
Ns 90.196078
Ka 0.000000 0.000000 0.000000
Kd 0.409600 0.409600 0.409600
Ks 0.500000 0.500000 0.500000
Ni 1.000000
d 1.000000
illum 2
map_Kd /home/ankur/texture_library/duvet/8a7a884e0ffe99a1e5159472cfd234b7.jpg

newmtl Carpet1.001
Ns 90.196078
Ka 0.000000 0.000000 0.000000
Kd 0.409600 0.409600 0.409600
Ks 0.500000 0.500000 0.500000
Ni 1.000000
d 1.000000
illum 2
map_Kd /home/ankur/texture_library/floor/images.jpg

newmtl Ceiling1.001
Ns 90.196078
Ka 0.000000 0.000000 0.000000
Kd 0.409600 0.409600 0.409600
Ks 0.500000 0.500000 0.500000
Ni 1.000000
d 1.000000
illum 2
map_Kd /home/ankur/texture_library/ceiling/ceiling_light.jpg

newmtl CeilingLight1.001
Ns 90.196078
Ka 0.000000 0.000000 0.000000
Kd 0.409600 0.409600 0.409600
Ks 0.500000 0.500000 0.500000
Ni 1.000000
d 1.000000
illum 2
map_Kd /home/ankur/texture_library/ceiling/ceiling_light.jpg

newmtl CeilingLight2.001
Ns 90.196078
Ka 0.000000 0.000000 0.000000
Kd 0.409600 0.409600 0.409600
Ks 0.500000 0.500000 0.500000
Ni 1.000000
d 1.000000
illum 2
map_Kd /home/ankur/texture_library/ceiling/ceiling_light.jpg

newmtl CeilingLight3.001
Ns 90.196078
Ka 0.000000 0.000000 0.000000
Kd 0.409600 0.409600 0.409600
Ks 0.500000 0.500000 0.500000
Ni 1.000000
d 1.000000
illum 2
map_Kd /home/ankur/texture_library/ceiling/ceiling_tiled.jpg

newmtl CeilingLight4.001
Ns 90.196078
Ka 0.000000 0.000000 0.000000
Kd 0.409600 0.409600 0.409600
Ks 0.500000 0.500000 0.500000
Ni 1.000000
d 1.000000
illum 2
map_Kd /home/ankur/texture_library/ceiling/ceiling_light.jpg

newmtl CeilingLight5.001
Ns 90.196078
Ka 0.000000 0.000000 0.000000
Kd 0.409600 0.409600 0.409600
Ks 0.500000 0.500000 0.500000
Ni 1.000000
d 1.000000
illum 2
map_Kd /home/ankur/texture_library/ceiling/CEILING-TILE-VOL2_08.jpg

newmtl CeilingLight6.001
Ns 90.196078
Ka 0.000000 0.000000 0.000000
Kd 0.409600 0.409600 0.409600
Ks 0.500000 0.500000 0.500000
Ni 1.000000
d 1.000000
illum 2
map_Kd /home/ankur/texture_library/ceiling/ceiling_light.jpg

newmtl CeilingLight7.001
Ns 90.196078
Ka 0.000000 0.000000 0.000000
Kd 0.409600 0.409600 0.409600
Ks 0.500000 0.500000 0.500000
Ni 1.000000
d 1.000000
illum 2
map_Kd /home/ankur/texture_library/ceiling/CEILING-TILE-VOL2_08.jpg

newmtl CeilingLight8.001
Ns 90.196078
Ka 0.000000 0.000000 0.000000
Kd 0.409600 0.409600 0.409600
Ks 0.500000 0.500000 0.500000
Ni 1.000000
d 1.000000
illum 2
map_Kd /home/ankur/texture_library/ceiling/ceiling_light.jpg

newmtl Chair1.003
Ns 90.196078
Ka 0.000000 0.000000 0.000000
Kd 0.409600 0.409600 0.409600
Ks 0.500000 0.500000 0.500000
Ni 1.000000
d 1.000000
illum 2
map_Kd /home/ankur/texture_library/chair/chair_fabric-texture.jpg

newmtl Chair2.002
Ns 90.196078
Ka 0.000000 0.000000 0.000000
Kd 0.409600 0.409600 0.409600
Ks 0.500000 0.500000 0.500000
Ni 1.000000
d 1.000000
illum 2
map_Kd /home/ankur/texture_library/chair/images2.jpg

newmtl Chair3.002
Ns 90.196078
Ka 0.000000 0.000000 0.000000
Kd 0.409600 0.409600 0.409600
Ks 0.500000 0.500000 0.500000
Ni 1.000000
d 1.000000
illum 2
map_Kd /home/ankur/texture_library/chair/images7.jpg

newmtl Chair4.002
Ns 90.196078
Ka 0.000000 0.000000 0.000000
Kd 0.409600 0.409600 0.409600
Ks 0.500000 0.500000 0.500000
Ni 1.000000
d 1.000000
illum 2
map_Kd /home/ankur/texture_library/chair/woodtexture2.jpg

newmtl Curtains1.001
Ns 90.196078
Ka 0.000000 0.000000 0.000000
Kd 0.409600 0.409600 0.409600
Ks 0.500000 0.500000 0.500000
Ni 1.000000
d 1.000000
illum 2
map_Kd /home/ankur/texture_library/curtain/curtainp2.jpg

newmtl Deco1.002
Ns 90.196078
Ka 0.000000 0.000000 0.000000
Kd 0.409600 0.409600 0.409600
Ks 0.500000 0.500000 0.500000
Ni 1.000000
d 1.000000
illum 2
map_Kd /home/ankur/texture_library/duvet/8a7a884e0ffe99a1e5159472cfd234b7.jpg

newmtl Deco2.002
Ns 90.196078
Ka 0.000000 0.000000 0.000000
Kd 0.409600 0.409600 0.409600
Ks 0.500000 0.500000 0.500000
Ni 1.000000
d 1.000000
illum 2
map_Kd /home/ankur/texture_library/duvet/8a7a884e0ffe99a1e5159472cfd234b7.jpg

newmtl Deco3.001
Ns 90.196078
Ka 0.000000 0.000000 0.000000
Kd 0.409600 0.409600 0.409600
Ks 0.500000 0.500000 0.500000
Ni 1.000000
d 1.000000
illum 2
map_Kd /home/ankur/texture_library/duvet/8a7a884e0ffe99a1e5159472cfd234b7.jpg

newmtl Deco4.001
Ns 90.196078
Ka 0.000000 0.000000 0.000000
Kd 0.409600 0.409600 0.409600
Ks 0.500000 0.500000 0.500000
Ni 1.000000
d 1.000000
illum 2
map_Kd /home/ankur/texture_library/duvet/8a7a884e0ffe99a1e5159472cfd234b7.jpg

newmtl Deco5.001
Ns 90.196078
Ka 0.000000 0.000000 0.000000
Kd 0.409600 0.409600 0.409600
Ks 0.500000 0.500000 0.500000
Ni 1.000000
d 1.000000
illum 2
map_Kd /home/ankur/texture_library/duvet/8a7a884e0ffe99a1e5159472cfd234b7.jpg

newmtl Deco6.001
Ns 90.196078
Ka 0.000000 0.000000 0.000000
Kd 0.409600 0.409600 0.409600
Ks 0.500000 0.500000 0.500000
Ni 1.000000
d 1.000000
illum 2
map_Kd /home/ankur/texture_library/duvet/8a7a884e0ffe99a1e5159472cfd234b7.jpg

newmtl Drawer1.001
Ns 90.196078
Ka 0.000000 0.000000 0.000000
Kd 0.409600 0.409600 0.409600
Ks 0.500000 0.500000 0.500000
Ni 1.000000
d 1.000000
illum 2
map_Kd /home/ankur/texture_library/furniture/5a37400d95f0065041855d70de05f965.jpg

newmtl Floor.001
Ns 90.196078
Ka 0.000000 0.000000 0.000000
Kd 0.409600 0.409600 0.409600
Ks 0.500000 0.500000 0.500000
Ni 1.000000
d 1.000000
illum 2
map_Kd /home/ankur/texture_library/floor/5718e21357fc32c7d5648faaef40aaa9.jpg

newmtl FruitBowl.001
Ns 90.196078
Ka 0.000000 0.000000 0.000000
Kd 0.409600 0.409600 0.409600
Ks 0.500000 0.500000 0.500000
Ni 1.000000
d 1.000000
illum 2
map_Kd /home/ankur/texture_library/duvet/8a7a884e0ffe99a1e5159472cfd234b7.jpg

newmtl Fruits.001
Ns 90.196078
Ka 0.000000 0.000000 0.000000
Kd 0.409600 0.409600 0.409600
Ks 0.500000 0.500000 0.500000
Ni 1.000000
d 1.000000
illum 2
map_Kd /home/ankur/texture_library/duvet/8a7a884e0ffe99a1e5159472cfd234b7.jpg

newmtl Furniture.001
Ns 90.196078
Ka 0.000000 0.000000 0.000000
Kd 0.409600 0.409600 0.409600
Ks 0.500000 0.500000 0.500000
Ni 1.000000
d 1.000000
illum 2
map_Kd /home/ankur/texture_library/furniture/e6cd46917b4bf133ac8d364eb6570555.jpg

newmtl Furniture1.002
Ns 90.196078
Ka 0.000000 0.000000 0.000000
Kd 0.409600 0.409600 0.409600
Ks 0.500000 0.500000 0.500000
Ni 1.000000
d 1.000000
illum 2
map_Kd /home/ankur/texture_library/furniture/f8e9bde683166b2d6f59edece41c8800.jpg

newmtl Furniture2.003
Ns 90.196078
Ka 0.000000 0.000000 0.000000
Kd 0.409600 0.409600 0.409600
Ks 0.500000 0.500000 0.500000
Ni 1.000000
d 1.000000
illum 2
map_Kd /home/ankur/texture_library/furniture/c4751258c4e6395129606f13de3f0bed.jpg

newmtl Furniture4.001
Ns 90.196078
Ka 0.000000 0.000000 0.000000
Kd 0.409600 0.409600 0.409600
Ks 0.500000 0.500000 0.500000
Ni 1.000000
d 1.000000
illum 2
map_Kd /home/ankur/texture_library/furniture/e6cd46917b4bf133ac8d364eb6570555.jpg

newmtl LCD_TV1
Ns 90.196078
Ka 0.000000 0.000000 0.000000
Kd 0.409600 0.409600 0.409600
Ks 0.500000 0.500000 0.500000
Ni 1.000000
d 1.000000
illum 2
map_Kd /home/ankur/texture_library/tv/tvnews001.jpg

newmtl Lamp3.001
Ns 90.196078
Ka 0.000000 0.000000 0.000000
Kd 0.409600 0.409600 0.409600
Ks 0.500000 0.500000 0.500000
Ni 1.000000
d 1.000000
illum 2
map_Kd /home/ankur/texture_library/lamp/Abstract.jpg

newmtl Object02
Ns 90.196078
Ka 0.000000 0.000000 0.000000
Kd 0.409600 0.409600 0.409600
Ks 0.500000 0.500000 0.500000
Ni 1.000000
d 1.000000
illum 2
map_Kd /home/ankur/texture_library/duvet/8a7a884e0ffe99a1e5159472cfd234b7.jpg

newmtl Painting.001
Ns 90.196078
Ka 0.000000 0.000000 0.000000
Kd 0.409600 0.409600 0.409600
Ks 0.500000 0.500000 0.500000
Ni 1.000000
d 1.000000
illum 2
map_Kd /home/ankur/texture_library/painting/59fb2d214a67c569e3c11c0fb69f670a.jpg

newmtl PaintingFrames1.001
Ns 90.196078
Ka 0.000000 0.000000 0.000000
Kd 0.409600 0.409600 0.409600
Ks 0.500000 0.500000 0.500000
Ni 1.000000
d 1.000000
illum 2
map_Kd /home/ankur/texture_library/painting/28a89d52365e81c3310486639c84e4e8.jpg

newmtl Pillow1.002
Ns 90.196078
Ka 0.000000 0.000000 0.000000
Kd 0.409600 0.409600 0.409600
Ks 0.500000 0.500000 0.500000
Ni 1.000000
d 1.000000
illum 2
map_Kd /home/ankur/texture_library/pillow/f2de320921dce1b971b9fb64fe5b32cf.jpg

newmtl Pillow2.002
Ns 90.196078
Ka 0.000000 0.000000 0.000000
Kd 0.409600 0.409600 0.409600
Ks 0.500000 0.500000 0.500000
Ni 1.000000
d 1.000000
illum 2
map_Kd /home/ankur/texture_library/pillow/3cd2678a14e67cc1b48d976193561138.jpg

newmtl Pillow3.002
Ns 90.196078
Ka 0.000000 0.000000 0.000000
Kd 0.409600 0.409600 0.409600
Ks 0.500000 0.500000 0.500000
Ni 1.000000
d 1.000000
illum 2
map_Kd /home/ankur/texture_library/pillow/3cd2678a14e67cc1b48d976193561138.jpg

newmtl Pillow4.002
Ns 90.196078
Ka 0.000000 0.000000 0.000000
Kd 0.409600 0.409600 0.409600
Ks 0.500000 0.500000 0.500000
Ni 1.000000
d 1.000000
illum 2
map_Kd /home/ankur/texture_library/pillow/3cd2678a14e67cc1b48d976193561138.jpg

newmtl Pillow5.001
Ns 90.196078
Ka 0.000000 0.000000 0.000000
Kd 0.409600 0.409600 0.409600
Ks 0.500000 0.500000 0.500000
Ni 1.000000
d 1.000000
illum 2
map_Kd /home/ankur/texture_library/pillow/ed587a3b16b0cc32f9ed2b936752b505.jpg

newmtl Plant1.001
Ns 90.196078
Ka 0.000000 0.000000 0.000000
Kd 0.409600 0.409600 0.409600
Ks 0.500000 0.500000 0.500000
Ni 1.000000
d 1.000000
illum 2
map_Kd /home/ankur/texture_library/duvet/8a7a884e0ffe99a1e5159472cfd234b7.jpg

newmtl Sofa1.002
Ns 90.196078
Ka 0.000000 0.000000 0.000000
Kd 0.409600 0.409600 0.409600
Ks 0.500000 0.500000 0.500000
Ni 1.000000
d 1.000000
illum 2
map_Kd /home/ankur/texture_library/sofa/20.jpg

newmtl Sofa2.001
Ns 90.196078
Ka 0.000000 0.000000 0.000000
Kd 0.409600 0.409600 0.409600
Ks 0.500000 0.500000 0.500000
Ni 1.000000
d 1.000000
illum 2
map_Kd /home/ankur/texture_library/sofa/15.jpg

newmtl Sofa3
Ns 90.196078
Ka 0.000000 0.000000 0.000000
Kd 0.409600 0.409600 0.409600
Ks 0.500000 0.500000 0.500000
Ni 1.000000
d 1.000000
illum 2
map_Kd /home/ankur/texture_library/sofa/19.jpg

newmtl Table1.004
Ns 90.196078
Ka 0.000000 0.000000 0.000000
Kd 0.409600 0.409600 0.409600
Ks 0.500000 0.500000 0.500000
Ni 1.000000
d 1.000000
illum 2
map_Kd /home/ankur/texture_library/table/1wall_wood_big_10_01_20.jpg

newmtl Table2.003
Ns 90.196078
Ka 0.000000 0.000000 0.000000
Kd 0.409600 0.409600 0.409600
Ks 0.500000 0.500000 0.500000
Ni 1.000000
d 1.000000
illum 2
map_Kd /home/ankur/texture_library/table/1wall_wood_big_10_01_20.jpg

newmtl Table3.002
Ns 90.196078
Ka 0.000000 0.000000 0.000000
Kd 0.409600 0.409600 0.409600
Ks 0.500000 0.500000 0.500000
Ni 1.000000
d 1.000000
illum 2
map_Kd /home/ankur/texture_library/table/1wall_wood_big_10_01_20.jpg

newmtl Table3.003
Ns 90.196078
Ka 0.000000 0.000000 0.000000
Kd 0.409600 0.409600 0.409600
Ks 0.500000 0.500000 0.500000
Ni 1.000000
d 1.000000
illum 2
map_Kd /home/ankur/texture_library/table/woodtexture.jpg

newmtl Tiger1.001
Ns 90.196078
Ka 0.000000 0.000000 0.000000
Kd 0.409600 0.409600 0.409600
Ks 0.500000 0.500000 0.500000
Ni 1.000000
d 1.000000
illum 2
map_Kd /home/ankur/texture_library/duvet/8a7a884e0ffe99a1e5159472cfd234b7.jpg

newmtl Tiger2.001
Ns 90.196078
Ka 0.000000 0.000000 0.000000
Kd 0.409600 0.409600 0.409600
Ks 0.500000 0.500000 0.500000
Ni 1.000000
d 1.000000
illum 2
map_Kd /home/ankur/texture_library/duvet/8a7a884e0ffe99a1e5159472cfd234b7.jpg

newmtl Walls1.001
Ns 90.196078
Ka 0.000000 0.000000 0.000000
Kd 0.409600 0.409600 0.409600
Ks 0.500000 0.500000 0.500000
Ni 1.000000
d 1.000000
illum 2
map_Kd /home/ankur/texture_library/wall/images.jpg

newmtl Window_padding.001
Ns 90.196078
Ka 0.000000 0.000000 0.000000
Kd 0.409600 0.409600 0.409600
Ks 0.500000 0.500000 0.500000
Ni 1.000000
d 1.000000
illum 2
map_Kd /home/ankur/texture_library/window/EW_041.jpg

newmtl Windows1.001
Ns 90.196078
Ka 0.000000 0.000000 0.000000
Kd 0.409600 0.409600 0.409600
Ks 0.500000 0.500000 0.500000
Ni 1.000000
d 1.000000
illum 2
map_Kd /home/ankur/texture_library/window/EW_041.jpg

newmtl chandalier
Ns 90.196078
Ka 0.000000 0.000000 0.000000
Kd 0.409600 0.409600 0.409600
Ks 0.500000 0.500000 0.500000
Ni 1.000000
d 1.000000
illum 2
map_Kd /home/ankur/texture_library/lamp/Abstract.jpg

newmtl chandalier.001
Ns 90.196078
Ka 0.000000 0.000000 0.000000
Kd 0.409600 0.409600 0.409600
Ks 0.500000 0.500000 0.500000
Ni 1.000000
d 1.000000
illum 2
map_Kd /home/ankur/texture_library/lamp/images.jpg

newmtl sofaSeat1
Ns 90.196078
Ka 0.000000 0.000000 0.000000
Kd 0.409600 0.409600 0.409600
Ks 0.500000 0.500000 0.500000
Ni 1.000000
d 1.000000
illum 2
map_Kd /home/ankur/texture_library/sofa/20.jpg
